Single Cycle/lab5.vcd
$date
	Wed Jul 10 07:52:02 2024
$end
$version
	Icarus Verilog
$end
$timescale
	1s
$end
$scope module testbench $end
$var wire 32 ! WriteData [31:0] $end
$var wire 1 " MemWrite $end
$var wire 32 # DataAdr [31:0] $end
$var wire 1 $ B $end
$var reg 1 % clk $end
$var reg 1 & reset $end
$scope module dut $end
$var wire 1 % clk $end
$var wire 1 & reset $end
$var wire 32 ' WriteData [31:0] $end
$var wire 32 ( ReadDatafinal [31:0] $end
$var wire 32 ) ReadData [31:0] $end
$var wire 32 * PC [31:0] $end
$var wire 1 " MemWrite $end
$var wire 32 + Instr [31:0] $end
$var wire 32 , DataAdr [31:0] $end
$var wire 1 $ B $end
$scope module arm $end
$var wire 1 % clk $end
$var wire 1 & reset $end
$var wire 32 - WriteData [31:0] $end
$var wire 1 . RegWrite $end
$var wire 2 / RegSrc [1:0] $end
$var wire 32 0 ReadData [31:0] $end
$var wire 1 1 PCSrc $end
$var wire 32 2 PC [31:0] $end
$var wire 1 3 MemtoReg $end
$var wire 1 " MemWrite $end
$var wire 32 4 Instr [31:0] $end
$var wire 2 5 ImmSrc [1:0] $end
$var wire 1 6 FP $end
$var wire 1 $ B $end
$var wire 1 7 ALUSrc $end
$var wire 32 8 ALUReal [31:0] $end
$var wire 4 9 ALUFlags [3:0] $end
$var wire 4 : ALUControl [3:0] $end
$scope module c $end
$var wire 20 ; Instr [31:12] $end
$var wire 1 % clk $end
$var wire 1 & reset $end
$var wire 1 . RegWrite $end
$var wire 1 < RegW $end
$var wire 2 = RegSrc [1:0] $end
$var wire 1 1 PCSrc $end
$var wire 1 > PCS $end
$var wire 1 3 MemtoReg $end
$var wire 1 " MemWrite $end
$var wire 1 ? MemW $end
$var wire 2 @ ImmSrc [1:0] $end
$var wire 2 A FlagW [1:0] $end
$var wire 1 6 FP $end
$var wire 1 $ B $end
$var wire 1 7 ALUSrc $end
$var wire 4 B ALUFlags [3:0] $end
$var wire 4 C ALUControl [3:0] $end
$scope module cl $end
$var wire 4 D Cond [3:0] $end
$var wire 2 E FlagWrite [1:0] $end
$var wire 1 " MemWrite $end
$var wire 1 1 PCSrc $end
$var wire 1 . RegWrite $end
$var wire 1 % clk $end
$var wire 1 & reset $end
$var wire 1 < RegW $end
$var wire 1 > PCS $end
$var wire 1 ? MemW $end
$var wire 4 F Flags [3:0] $end
$var wire 2 G FlagW [1:0] $end
$var wire 1 H CondEx $end
$var wire 4 I ALUFlags [3:0] $end
$scope module cc $end
$var wire 4 J Cond [3:0] $end
$var wire 4 K Flags [3:0] $end
$var wire 1 L ge $end
$var wire 1 M zero $end
$var wire 1 N overflow $end
$var wire 1 O neg $end
$var wire 1 P carry $end
$var reg 1 H CondEx $end
$upscope $end
$scope module flagreg0 $end
$var wire 1 % clk $end
$var wire 2 Q d [1:0] $end
$var wire 1 R en $end
$var wire 1 & reset $end
$var reg 2 S q [1:0] $end
$upscope $end
$scope module flagreg1 $end
$var wire 1 % clk $end
$var wire 2 T d [1:0] $end
$var wire 1 U en $end
$var wire 1 & reset $end
$var reg 2 V q [1:0] $end
$upscope $end
$upscope $end
$scope module dec $end
$var wire 6 W Funct [5:0] $end
$var wire 2 X Op [1:0] $end
$var wire 1 > PCS $end
$var wire 4 Y Rd [3:0] $end
$var wire 1 < RegW $end
$var wire 2 Z RegSrc [1:0] $end
$var wire 1 3 MemtoReg $end
$var wire 1 ? MemW $end
$var wire 2 [ ImmSrc [1:0] $end
$var wire 1 6 FP $end
$var wire 1 \ Branch $end
$var wire 1 $ B $end
$var wire 1 7 ALUSrc $end
$var wire 1 ] ALUOp $end
$var reg 4 ^ ALUControl [3:0] $end
$var reg 2 _ FlagW [1:0] $end
$var reg 12 ` controls [11:0] $end
$upscope $end
$upscope $end
$scope module dp $end
$var wire 4 a ALUControl [3:0] $end
$var wire 1 7 ALUSrc $end
$var wire 1 6 FP $end
$var wire 2 b ImmSrc [1:0] $end
$var wire 1 3 MemtoReg $end
$var wire 1 1 PCSrc $end
$var wire 2 c RegSrc [1:0] $end
$var wire 1 . RegWrite $end
$var wire 1 % clk $end
$var wire 1 & reset $end
$var wire 32 d WriteData [31:0] $end
$var wire 32 e SrcB [31:0] $end
$var wire 32 f SrcA [31:0] $end
$var wire 32 g Result [31:0] $end
$var wire 32 h ReadData [31:0] $end
$var wire 4 i RA2 [3:0] $end
$var wire 4 j RA1 [3:0] $end
$var wire 32 k PCPlus8 [31:0] $end
$var wire 32 l PCPlus4 [31:0] $end
$var wire 32 m PCNext [31:0] $end
$var wire 32 n PC [31:0] $end
$var wire 32 o Instr [31:0] $end
$var wire 32 p ExtImm [31:0] $end
$var wire 32 q ALUResult [31:0] $end
$var wire 32 r ALUReal [31:0] $end
$var wire 4 s ALUFlags [3:0] $end
$var wire 32 t ALUFPResult [31:0] $end
$scope module alu $end
$var wire 4 u ALUControl [3:0] $end
$var wire 1 v carry $end
$var wire 1 w overflow $end
$var wire 1 x zero $end
$var wire 33 y sum [32:0] $end
$var wire 1 z neg $end
$var wire 32 { condinvb [31:0] $end
$var wire 32 | b [31:0] $end
$var wire 32 } a [31:0] $end
$var wire 4 ~ ALUFlags [3:0] $end
$var reg 32 !" Result [31:0] $end
$upscope $end
$scope module aluFP $end
$var wire 1 "" ALUControl $end
$var wire 32 #" result [31:0] $end
$var wire 32 $" CFMUL [31:0] $end
$var wire 32 %" CFADD [31:0] $end
$var wire 32 &" B [31:0] $end
$var wire 32 '" A [31:0] $end
$scope module FADD $end
$var wire 9 (" shiftNegative [8:0] $end
$var wire 9 )" shift [8:0] $end
$var wire 23 *" mantissaResult [22:0] $end
$var wire 25 +" mantissaC [24:0] $end
$var wire 24 ," mantissaB [23:0] $end
$var wire 24 -" mantissaA [23:0] $end
$var wire 24 ." fractionB [23:0] $end
$var wire 24 /" fractionA [23:0] $end
$var wire 8 0" exponentResult [7:0] $end
$var wire 8 1" exponentC [7:0] $end
$var wire 9 2" exponentB [8:0] $end
$var wire 9 3" exponentA [8:0] $end
$var wire 32 4" Result [31:0] $end
$var wire 32 5" B [31:0] $end
$var wire 32 6" A [31:0] $end
$upscope $end
$scope module FMUL $end
$var wire 1 7" sig_res $end
$var wire 1 8" sig_b $end
$var wire 1 9" sig_a $end
$var wire 48 :" product [47:0] $end
$var wire 23 ;" man_res [22:0] $end
$var wire 24 <" man_b [23:0] $end
$var wire 24 =" man_a [23:0] $end
$var wire 9 >" exp_res2 [8:0] $end
$var wire 9 ?" exp_res [8:0] $end
$var wire 8 @" exp_b [7:0] $end
$var wire 8 A" exp_a [7:0] $end
$var wire 32 B" FPResult [31:0] $end
$var wire 32 C" FPB [31:0] $end
$var wire 32 D" FPA [31:0] $end
$upscope $end
$upscope $end
$scope module aluSelector $end
$var wire 32 E" d0 [31:0] $end
$var wire 32 F" d1 [31:0] $end
$var wire 1 6 s $end
$var wire 32 G" y [31:0] $end
$upscope $end
$scope module ext $end
$var wire 2 H" ImmSrc [1:0] $end
$var wire 24 I" Instr [23:0] $end
$var reg 32 J" ExtImm [31:0] $end
$upscope $end
$scope module pcadd1 $end
$var wire 32 K" b [31:0] $end
$var wire 32 L" y [31:0] $end
$var wire 32 M" a [31:0] $end
$upscope $end
$scope module pcadd2 $end
$var wire 32 N" a [31:0] $end
$var wire 32 O" b [31:0] $end
$var wire 32 P" y [31:0] $end
$upscope $end
$scope module pcmux $end
$var wire 32 Q" d0 [31:0] $end
$var wire 1 1 s $end
$var wire 32 R" y [31:0] $end
$var wire 32 S" d1 [31:0] $end
$upscope $end
$scope module pcreg $end
$var wire 1 % clk $end
$var wire 32 T" d [31:0] $end
$var wire 1 & reset $end
$var reg 32 U" q [31:0] $end
$upscope $end
$scope module ra1mux $end
$var wire 4 V" d0 [3:0] $end
$var wire 4 W" d1 [3:0] $end
$var wire 1 X" s $end
$var wire 4 Y" y [3:0] $end
$upscope $end
$scope module ra2mux $end
$var wire 4 Z" d0 [3:0] $end
$var wire 4 [" d1 [3:0] $end
$var wire 1 \" s $end
$var wire 4 ]" y [3:0] $end
$upscope $end
$scope module resmux $end
$var wire 32 ^" d0 [31:0] $end
$var wire 1 3 s $end
$var wire 32 _" y [31:0] $end
$var wire 32 `" d1 [31:0] $end
$upscope $end
$scope module rf $end
$var wire 1 % clk $end
$var wire 32 a" r15 [31:0] $end
$var wire 4 b" ra1 [3:0] $end
$var wire 4 c" ra2 [3:0] $end
$var wire 4 d" wa3 [3:0] $end
$var wire 32 e" wd3 [31:0] $end
$var wire 1 . we3 $end
$var wire 32 f" rd2 [31:0] $end
$var wire 32 g" rd1 [31:0] $end
$upscope $end
$scope module srcbmux $end
$var wire 32 h" d0 [31:0] $end
$var wire 32 i" d1 [31:0] $end
$var wire 1 7 s $end
$var wire 32 j" y [31:0] $end
$upscope $end
$upscope $end
$upscope $end
$scope module dmem $end
$var wire 32 k" a [31:0] $end
$var wire 1 % clk $end
$var wire 32 l" rd [31:0] $end
$var wire 32 m" wd [31:0] $end
$var wire 1 " we $end
$upscope $end
$scope module imem $end
$var wire 32 n" a [31:0] $end
$var wire 32 o" rd [31:0] $end
$upscope $end
$scope module ldrb $end
$var wire 1 $ B $end
$var wire 1 % clk $end
$var wire 32 p" rd [31:0] $end
$var reg 32 q" newrd [31:0] $end
$upscope $end
$upscope $end
$upscope $end
$enddefinitions $end
#0
$dumpvars
bx q"
bx p"
b11100011101000000000011100111111 o"
b0 n"
b1000 m"
bx l"
b111111 k"
b111111 j"
b111111 i"
b1000 h"
bx g"
b1000 f"
b111111 e"
b0 d"
b1111 c"
b0 b"
b1000 a"
bx `"
b111111 _"
b111111 ^"
b1111 ]"
0\"
b0 ["
b1111 Z"
b0 Y"
0X"
b1111 W"
b0 V"
b0 U"
b100 T"
b111111 S"
b100 R"
b100 Q"
b1000 P"
b100 O"
b100 N"
b0 M"
b100 L"
b100 K"
b111111 J"
b101000000000011100111111 I"
b0 H"
b111111 G"
bx F"
b111111 E"
bx D"
b111111 C"
bx B"
bx A"
b0 @"
bx ?"
bx >"
b1xxxxxxxxxxxxxxxxxxxxxxx ="
b100000000000000000111111 <"
bx ;"
bx :"
x9"
08"
x7"
bx 6"
b111111 5"
bx 4"
b0xxxxxxxx 3"
b0 2"
bx 1"
bx 0"
b1xxxxxxxxxxxxxxxxxxxxxxx /"
b100000000000000000111111 ."
b1xxxxxxxxxxxxxxxxxxxxxxx -"
bx ,"
bx +"
bx *"
bx )"
bx ("
bx '"
b111111 &"
bx %"
bx $"
bx #"
1""
b111111 !"
b0 ~
bx }
b111111 |
b11111111111111111111111111000000 {
0z
bx y
0x
0w
0v
b111 u
bx t
b0 s
b111111 r
b111111 q
b111111 p
b11100011101000000000011100111111 o
b0 n
b100 m
b100 l
b1000 k
b0 j
b1111 i
bx h
b111111 g
bx f
b111111 e
b1000 d
b0 c
b0 b
b111 a
b1010001 `
b0 _
b111 ^
1]
0\
b0 [
b0 Z
b0 Y
b0 X
b111010 W
b0 V
0U
b0 T
b0 S
0R
b0 Q
0P
0O
0N
0M
1L
b0 K
b1110 J
b0 I
1H
b0 G
b0 F
b0 E
b1110 D
b111 C
b0 B
b0 A
b0 @
0?
0>
b0 =
1<
b11100011101000000000 ;
b111 :
b0 9
b111111 8
17
06
b0 5
b11100011101000000000011100111111 4
03
b0 2
01
bx 0
b0 /
1.
b1000 -
b111111 ,
b11100011101000000000011100111111 +
b0 *
bx )
bx (
b1000 '
1&
1%
0$
b111111 #
0"
b1000 !
$end
#5
0%
#10
b11111111111111111111111111111110 {
b100000000000000000000001 <"
b100000000000000000000001 ."
b100000 *"
b1 e
b1 |
b1 &"
b1 5"
b1 C"
b1 j"
b11 :
b11 C
b11 ^
b11 a
b11 u
b1000000 ;"
b1000000100000000000000001000000 t
b1000000100000000000000001000000 #"
b1000000100000000000000001000000 F"
b1 0"
b0 1"
b1 p
b1 J"
b1 i"
b1 i
b1 ]"
b1 c"
b111000 W
b10000001 >"
b1000000100000000000000001000000 $"
b1000000100000000000000001000000 B"
07"
b1000000000000000001000000 +"
b100000000000000000111111 -"
b100000000000000000000001 ,"
b0 ("
b100000000000000100000001 I"
b1 Z"
b11100011100000000000 ;
b10000000000000000100000000000000000000000111111 :"
b100000000000000000111111 ="
b10000001 ?"
b0 A"
09"
b100000000000000000100000 %"
b100000000000000000100000 4"
b100000000000000000111111 /"
b0 )"
b0 3"
b11100011100000000000000100000001 +
b11100011100000000000000100000001 4
b11100011100000000000000100000001 o
b11100011100000000000000100000001 o"
bx !
bx '
bx -
bx d
bx f"
bx h"
bx m"
b1000 m
b1000 R"
b1000 T"
b100000000000000000000000000111110 y
b111111 f
b111111 }
b111111 '"
b111111 6"
b111111 D"
b111111 g"
b1100 k
b1100 P"
b1100 a"
b1000 l
b1000 L"
b1000 N"
b1000 Q"
b100 *
b100 2
b100 n
b100 M"
b100 U"
b100 n"
1%
0&
#15
0%
#20
b1000000100000000000000001111000 t
b1000000100000000000000001111000 #"
b1000000100000000000000001111000 F"
b100000000000000000111100 %"
b100000000000000000111100 4"
b111100 *"
b1000000100000000000000001111000 $"
b1000000100000000000000001111000 B"
b1111000 ;"
b111001 g
b111001 S"
b111001 _"
b111001 e"
b1000000000000000001111000 +"
b100000000000000000111001 ,"
b100000000000000000000000000000110 y
b11111111111111111111111111000110 {
b111001 #
b111001 ,
b111001 8
b111001 r
b111001 G"
b111001 ^"
b111001 k"
b10000000000000000111100000000000000111000000111 :"
b100000000000000000111001 <"
b100000000000000000111001 ."
b111001 q
b111001 !"
b111001 E"
b111001 e
b111001 |
b111001 &"
b111001 5"
b111001 C"
b111001 j"
b111 :
b111 C
b111 ^
b111 a
b111 u
b111001 p
b111001 J"
b111001 i"
b1001 i
b1001 ]"
b1001 c"
b111010 W
b1 Y
b101000000001010100111001 I"
b1 d"
b1 ["
b1001 Z"
b11100011101000000001 ;
b11100011101000000001010100111001 +
b11100011101000000001010100111001 4
b11100011101000000001010100111001 o
b11100011101000000001010100111001 o"
b1100 m
b1100 R"
b1100 T"
b10000 k
b10000 P"
b10000 a"
b1100 l
b1100 L"
b1100 N"
b1100 Q"
b1000 *
b1000 2
b1000 n
b1000 M"
b1000 U"
b1000 n"
1%
#25
0%
#30
b1000000100000000000000000111100 t
b1000000100000000000000000111100 #"
b1000000100000000000000000111100 F"
b100000000000000000011110 %"
b100000000000000000011110 4"
b11110 *"
b1000000100000000000000000111100 $"
b1000000100000000000000000111100 B"
b111100 ;"
b111011 g
b111011 S"
b111011 _"
b111011 e"
b100000000000000000000011 ,"
b11111111111111111111111111111100 {
b1000000000000000000111100 +"
b100000000000000000111001 -"
b111011 #
b111011 ,
b111011 8
b111011 r
b111011 G"
b111011 ^"
b111011 k"
b100000000000000000000011 <"
b100000000000000000000011 ."
b10000000000000000011110000000000000000010101011 :"
b100000000000000000111001 ="
b100000000000000000111001 /"
b111011 q
b111011 !"
b111011 E"
b11 e
b11 |
b11 &"
b11 5"
b11 C"
b11 j"
b100000000000000000000000000110110 y
b111001 f
b111001 }
b111001 '"
b111001 6"
b111001 D"
b111001 g"
b11 :
b11 C
b11 ^
b11 a
b11 u
b11 p
b11 J"
b11 i"
b11 i
b11 ]"
b11 c"
b1 j
b1 Y"
b1 b"
b111000 W
b100000010001001000000011 I"
b11 Z"
b1 V"
b11100011100000010001 ;
b11100011100000010001001000000011 +
b11100011100000010001001000000011 4
b11100011100000010001001000000011 o
b11100011100000010001001000000011 o"
b10000 m
b10000 R"
b10000 T"
b10100 k
b10100 P"
b10100 a"
b10000 l
b10000 L"
b10000 N"
b10000 Q"
b1100 *
b1100 2
b1100 n
b1100 M"
b1100 U"
b1100 n"
1%
#35
0%
#40
b100000000000000000111101 g
b100000000000000000111101 S"
b100000000000000000111101 _"
b100000000000000000111101 e"
b100000000000000000111111 ,"
b0 T
b111111 {
b100000000000000000111101 #
b100000000000000000111101 ,
b100000000000000000111101 8
b100000000000000000111101 r
b100000000000000000111101 G"
b100000000000000000111101 ^"
b100000000000000000111101 k"
0.
b100000000000000000111111 <"
b100000000000000000111111 ."
0""
b0 9
b0 B
b0 I
b0 s
b0 ~
0x
b111011 q
b111011 !"
b111011 E"
16
07
0<
b100000000000000000111101 t
b100000000000000000111101 #"
b100000000000000000111101 F"
b100000000000000000111101 %"
b100000000000000000111101 4"
b111101 *"
b111111 e
b111111 |
b111111 &"
b111111 5"
b111111 C"
b111111 j"
b111111 !
b111111 '
b111111 -
b111111 d
b111111 f"
b111111 h"
b111111 m"
b10 :
b10 C
b10 ^
b10 a
b10 u
b100000000001 `
b1000000100000000000000001111010 $"
b1000000100000000000000001111010 B"
b1111010 ;"
b0 p
b0 J"
b0 i"
b0 i
b0 ]"
b0 c"
b11 X
b0 W
b10 Y
b1000000000000000001111010 +"
b100000000000000000111011 -"
b10010000000000000 I"
b10 d"
b10 ["
b0 Z"
b11101100000000010010 ;
b10000000000000000111101000000000000111010000101 :"
b100000000000000000111011 ="
b100000000000000000111011 /"
b11101100000000010010000000000000 +
b11101100000000010010000000000000 4
b11101100000000010010000000000000 o
b11101100000000010010000000000000 o"
b10100 m
b10100 R"
b10100 T"
b1111010 y
b111011 f
b111011 }
b111011 '"
b111011 6"
b111011 D"
b111011 g"
b11000 k
b11000 P"
b11000 a"
b10100 l
b10100 L"
b10100 N"
b10100 Q"
b10000 *
b10000 2
b10000 n
b10000 M"
b10000 U"
b10000 n"
1%
#45
0%
#50
b100000000000000000100001 %"
b100000000000000000100001 4"
b100001 *"
b100000000000000000000011 ,"
b1000000100000000000000001000010 $"
b1000000100000000000000001000010 B"
b1000010 ;"
b11 g
b11 S"
b11 _"
b11 e"
b100000000000000000000011 <"
b100000000000000000000011 ."
b1000000000000000001000010 +"
b100000000000000000111111 -"
b1000000100000000000000001000010 t
b1000000100000000000000001000010 #"
b1000000100000000000000001000010 F"
b11111111111111111111111111111100 {
b11 #
b11 ,
b11 8
b11 r
b11 G"
b11 ^"
b11 k"
1.
b11 e
b11 |
b11 &"
b11 5"
b11 C"
b11 j"
b10000000000000000100001000000000000000010111101 :"
b100000000000000000111111 ="
b100000000000000000111111 /"
1""
b11 q
b11 !"
b11 E"
06
17
1<
bx !
bx '
bx -
bx d
bx f"
bx h"
bx m"
b100000000000000000000000000111100 y
b111111 f
b111111 }
b111111 '"
b111111 6"
b111111 D"
b111111 g"
b111 :
b111 C
b111 ^
b111 a
b111 u
b1010001 `
b11 p
b11 J"
b11 i"
b11 i
b11 ]"
b11 c"
b0 j
b0 Y"
b0 b"
b0 X
b111010 W
b11 Y
b101000000011100100000011 I"
b11 d"
b11 ["
b11 Z"
b0 V"
b11100011101000000011 ;
b11100011101000000011100100000011 +
b11100011101000000011100100000011 4
b11100011101000000011100100000011 o
b11100011101000000011100100000011 o"
b11000 m
b11000 R"
b11000 T"
b11100 k
b11100 P"
b11100 a"
b11000 l
b11000 L"
b11000 N"
b11000 Q"
b10100 *
b10100 2
b10100 n
b10100 M"
b10100 U"
b10100 n"
1%
#55
0%
#60
b1000000100000000000000000100001 t
b1000000100000000000000000100001 #"
b1000000100000000000000000100001 F"
b100000000000000000010000 %"
b100000000000000000010000 4"
b10000 *"
b1000000100000000000000000100001 $"
b1000000100000000000000000100001 B"
b100001 ;"
b11111 g
b11111 S"
b11111 _"
b11111 e"
b100000000000000000011110 ,"
b11111111111111111111111111100001 {
b1000000000000000000100001 +"
b100000000000000000000011 -"
b11111 #
b11111 ,
b11111 8
b11111 r
b11111 G"
b11111 ^"
b11111 k"
b100000000000000000011110 <"
b100000000000000000011110 ."
b10000000000000000010000100000000000000001011010 :"
b100000000000000000000011 ="
b100000000000000000000011 /"
b11111 q
b11111 !"
b11111 E"
b11110 e
b11110 |
b11110 &"
b11110 5"
b11110 C"
b11110 j"
b11111111111111111111111111100101 y
b11 f
b11 }
b11 '"
b11 6"
b11 D"
b11 g"
b11 :
b11 C
b11 ^
b11 a
b11 u
b11110 p
b11110 J"
b11110 i"
b1110 i
b1110 ]"
b1110 c"
b11 j
b11 Y"
b11 b"
b111000 W
b100000110011011100011110 I"
b1110 Z"
b11 V"
b11100011100000110011 ;
b11100011100000110011011100011110 +
b11100011100000110011011100011110 4
b11100011100000110011011100011110 o
b11100011100000110011011100011110 o"
b11100 m
b11100 R"
b11100 T"
bx !
bx '
bx -
bx d
bx f"
bx h"
bx m"
b100000 k
b100000 P"
b100000 a"
b11100 l
b11100 L"
b11100 N"
b11100 Q"
b11000 *
b11000 2
b11000 n
b11000 M"
b11000 U"
b11000 n"
1%
#65
0%
#70
b11011111 g
b11011111 S"
b11011111 _"
b11011111 e"
b100000000000000011000011 ,"
b11111111111111111111111100111100 {
b11011111 #
b11011111 ,
b11011111 8
b11011111 r
b11011111 G"
b11011111 ^"
b11011111 k"
b100000000000000011000011 <"
b100000000000000011000011 ."
b11011111 q
b11011111 !"
b11011111 E"
b1000000100000000000000011100010 t
b1000000100000000000000011100010 #"
b1000000100000000000000011100010 F"
b100000000000000001110001 %"
b100000000000000001110001 4"
b1110001 *"
b11000011 e
b11000011 |
b11000011 &"
b11000011 5"
b11000011 C"
b11000011 j"
b11111 !
b11111 '
b11111 -
b11111 d
b11111 f"
b11111 h"
b11111 m"
b1000000100000000000000011100010 $"
b1000000100000000000000011100010 B"
b11100010 ;"
b11000011 p
b11000011 J"
b11000011 i"
b11 i
b11 ]"
b11 c"
b1000000000000000011100010 +"
b100000000000000000011111 -"
b100000110011010011000011 I"
b11 Z"
b10000000000000001110001000000000001011110011101 :"
b100000000000000000011111 ="
b100000000000000000011111 /"
b11100011100000110011010011000011 +
b11100011100000110011010011000011 4
b11100011100000110011010011000011 o
b11100011100000110011010011000011 o"
b100000 m
b100000 R"
b100000 T"
b11111111111111111111111101011100 y
b11111 f
b11111 }
b11111 '"
b11111 6"
b11111 D"
b11111 g"
b100100 k
b100100 P"
b100100 a"
b100000 l
b100000 L"
b100000 N"
b100000 Q"
b11100 *
b11100 2
b11100 n
b11100 M"
b11100 U"
b11100 n"
1%
#75
0%
#80
b1 g
b1 S"
b1 _"
b1 e"
b100000000000000000000001 ,"
b11111111111111111111111111111110 {
b1 #
b1 ,
b1 8
b1 r
b1 G"
b1 ^"
b1 k"
b100000000000000000000001 <"
b100000000000000000000001 ."
b1 q
b1 !"
b1 E"
b1000000100000000000000001000000 t
b1000000100000000000000001000000 #"
b1000000100000000000000001000000 F"
b100000000000000000100000 %"
b100000000000000000100000 4"
b100000 *"
b1 e
b1 |
b1 &"
b1 5"
b1 C"
b1 j"
b111 :
b111 C
b111 ^
b111 a
b111 u
b1000000100000000000000001000000 $"
b1000000100000000000000001000000 B"
b1000000 ;"
b1 p
b1 J"
b1 i"
b1 i
b1 ]"
b1 c"
b0 j
b0 Y"
b0 b"
b111010 W
b100 Y
b1000000000000000001000000 +"
b100000000000000000111111 -"
b101000000100100100000001 I"
b100 d"
b100 ["
b1 Z"
b0 V"
b11100011101000000100 ;
b10000000000000000100000000000000000000000111111 :"
b100000000000000000111111 ="
b100000000000000000111111 /"
b11100011101000000100100100000001 +
b11100011101000000100100100000001 4
b11100011101000000100100100000001 o
b11100011101000000100100100000001 o"
b100100 m
b100100 R"
b100100 T"
b100000000000000000000000000111110 y
b111111 f
b111111 }
b111111 '"
b111111 6"
b111111 D"
b111111 g"
b111011 !
b111011 '
b111011 -
b111011 d
b111011 f"
b111011 h"
b111011 m"
b101000 k
b101000 P"
b101000 a"
b100100 l
b100100 L"
b100100 N"
b100100 Q"
b100000 *
b100000 2
b100000 n
b100000 M"
b100000 U"
b100000 n"
1%
#85
0%
#90
b1000000100000000000000011011010 t
b1000000100000000000000011011010 #"
b1000000100000000000000011011010 F"
b100000000000000001101101 %"
b100000000000000001101101 4"
b1101101 *"
b1000000100000000000000011011010 $"
b1000000100000000000000011011010 B"
b11011010 ;"
b11011001 g
b11011001 S"
b11011001 _"
b11011001 e"
b100000000000000011011001 ,"
b11111111111111111111111100100110 {
b1000000000000000011011010 +"
b100000000000000000000001 -"
b11011001 #
b11011001 ,
b11011001 8
b11011001 r
b11011001 G"
b11011001 ^"
b11011001 k"
b100000000000000011011001 <"
b100000000000000011011001 ."
b10000000000000001101101000000000000000011011001 :"
b100000000000000000000001 ="
b100000000000000000000001 /"
b11011001 q
b11011001 !"
b11011001 E"
b11011001 e
b11011001 |
b11011001 &"
b11011001 5"
b11011001 C"
b11011001 j"
bx !
bx '
bx -
bx d
bx f"
bx h"
bx m"
b11111111111111111111111100101000 y
b1 f
b1 }
b1 '"
b1 6"
b1 D"
b1 g"
b11 :
b11 C
b11 ^
b11 a
b11 u
b11011001 p
b11011001 J"
b11011001 i"
b1001 i
b1001 ]"
b1001 c"
b100 j
b100 Y"
b100 b"
b111000 W
b100001000100100011011001 I"
b1001 Z"
b100 V"
b11100011100001000100 ;
b11100011100001000100100011011001 +
b11100011100001000100100011011001 4
b11100011100001000100100011011001 o
b11100011100001000100100011011001 o"
b101000 m
b101000 R"
b101000 T"
b101100 k
b101100 P"
b101100 a"
b101000 l
b101000 L"
b101000 N"
b101000 Q"
b100100 *
b100100 2
b100100 n
b100100 M"
b100100 U"
b100100 n"
1%
#95
0%
#100
b100000000000000011000001 ,"
b11111111111111111111111100111110 {
b100000000000000011000001 <"
b100000000000000011000001 ."
b1000000100000000000000110011010 t
b1000000100000000000000110011010 #"
b1000000100000000000000110011010 F"
b100000000000000011001101 %"
b100000000000000011001101 4"
b11001101 *"
b11000001 e
b11000001 |
b11000001 &"
b11000001 5"
b11000001 C"
b11000001 j"
b111011 !
b111011 '
b111011 -
b111011 d
b111011 f"
b111011 h"
b111011 m"
b1000000100000000000000110011010 $"
b1000000100000000000000110011010 B"
b110011010 ;"
b11000001 p
b11000001 J"
b11000001 i"
b1 i
b1 ]"
b1 c"
b1000000000000000110011010 +"
b100000000000000011011001 -"
b100001000100010011000001 I"
b1 Z"
b10000000000000011001101000000001010001110011001 :"
b100000000000000011011001 ="
b100000000000000011011001 /"
b11100011100001000100010011000001 +
b11100011100001000100010011000001 4
b11100011100001000100010011000001 o
b11100011100001000100010011000001 o"
b101100 m
b101100 R"
b101100 T"
b100000000000000000000000000011000 y
b11011001 f
b11011001 }
b11011001 '"
b11011001 6"
b11011001 D"
b11011001 g"
b110000 k
b110000 P"
b110000 a"
b101100 l
b101100 L"
b101100 N"
b101100 Q"
b101000 *
b101000 2
b101000 n
b101000 M"
b101000 U"
b101000 n"
1%
#105
0%
#110
b100000000000000011011100 %"
b100000000000000011011100 4"
b11011100 *"
b1000000100000000000000110111000 $"
b1000000100000000000000110111000 B"
b110111000 ;"
b100000000000000011011100 g
b100000000000000011011100 S"
b100000000000000011011100 _"
b100000000000000011011100 e"
b1000000000000000110111000 +"
b100000000000000011011111 ,"
b100000000000000011011100 t
b100000000000000011011100 #"
b100000000000000011011100 F"
b11011111 {
b100000000000000011011100 #
b100000000000000011011100 ,
b100000000000000011011100 8
b100000000000000011011100 r
b100000000000000011011100 G"
b100000000000000011011100 ^"
b100000000000000011011100 k"
0.
b10000000000000011011100000000001011110100000111 :"
b100000000000000011011111 <"
b100000000000000011011111 ."
0""
b11011001 q
b11011001 !"
b11011001 E"
b110111000 y
16
07
0<
b11011111 e
b11011111 |
b11011111 &"
b11011111 5"
b11011111 C"
b11011111 j"
b11011111 !
b11011111 '
b11011111 -
b11011111 d
b11011111 f"
b11011111 h"
b11011111 m"
b10 :
b10 C
b10 ^
b10 a
b10 u
b100000000001 `
b11 p
b11 J"
b11 i"
b11 i
b11 ]"
b11 c"
b11 X
b0 W
b101 Y
b1000101000000000011 I"
b101 d"
b101 ["
b11 Z"
b11101100000001000101 ;
b11101100000001000101000000000011 +
b11101100000001000101000000000011 4
b11101100000001000101000000000011 o
b11101100000001000101000000000011 o"
b110000 m
b110000 R"
b110000 T"
b110100 k
b110100 P"
b110100 a"
b110000 l
b110000 L"
b110000 N"
b110000 Q"
b101100 *
b101100 2
b101100 n
b101100 M"
b101100 U"
b101100 n"
1%
#115
0%
#120
b100000000000000000111100 %"
b100000000000000000111100 4"
b111100 *"
b100000000000000000111010 ,"
b1000000100000000000000001111001 $"
b1000000100000000000000001111001 B"
b1111001 ;"
b111010 g
b111010 S"
b111010 _"
b111010 e"
b100000000000000000111010 <"
b100000000000000000111010 ."
b1000000000000000001111001 +"
b100000000000000000111111 -"
b1000000100000000000000001111001 t
b1000000100000000000000001111001 #"
b1000000100000000000000001111001 F"
b11111111111111111111111111000101 {
b111010 #
b111010 ,
b111010 8
b111010 r
b111010 G"
b111010 ^"
b111010 k"
1.
b111010 e
b111010 |
b111010 &"
b111010 5"
b111010 C"
b111010 j"
b10000000000000000111100100000000000111001000110 :"
b100000000000000000111111 ="
b100000000000000000111111 /"
1""
b111010 q
b111010 !"
b111010 E"
06
17
1<
bx !
bx '
bx -
bx d
bx f"
bx h"
bx m"
b100000000000000000000000000000101 y
b111111 f
b111111 }
b111111 '"
b111111 6"
b111111 D"
b111111 g"
b111 :
b111 C
b111 ^
b111 a
b111 u
b1010001 `
b111010 p
b111010 J"
b111010 i"
b1010 i
b1010 ]"
b1010 c"
b0 j
b0 Y"
b0 b"
b0 X
b111010 W
b110 Y
b101000000110011100111010 I"
b110 d"
b110 ["
b1010 Z"
b0 V"
b11100011101000000110 ;
b11100011101000000110011100111010 +
b11100011101000000110011100111010 4
b11100011101000000110011100111010 o
b11100011101000000110011100111010 o"
b110100 m
b110100 R"
b110100 T"
b111000 k
b111000 P"
b111000 a"
b110100 l
b110100 L"
b110100 N"
b110100 Q"
b110000 *
b110000 2
b110000 n
b110000 M"
b110000 U"
b110000 n"
1%
#125
0%
